package rules.EventMessage.EventFired_dir.TDIC_ALL900000_dir.TDIC_EFR910000Lawson_dir.TDIC_EFR911000Contact_dir

@gw.rules.RuleName("TDIC_EFR911200 - New")
internal class TDIC_EFR911200New {
  static function doCondition(messageContext  :  entity.MessageContext) : boolean {
/*start00rule*/
return messageContext.EventName == "ABContactAdded"
/*end00rule*/
}

  static function doAction(messageContext  :  entity.MessageContext, actions : gw.rules.Action) {
/*start00rule*/
    var abContact = (messageContext.Root as ABContact)
    //GINTEG-21 : Set 'NeedVendorID' so that the ABContact information will be sent to Lawson
    if(abContact.VendorNumber =='99' or abContact.VendorNumber == null )
    abContact.NeedVendorID = true

/*end00rule*/
  }
}
