package rules.EventMessage.EventFired_dir.BillingCenter_dir.Contact_dir
uses gw.plugin.Plugins
uses gw.plugin.ClientSystemPlugin
uses gw.plugin.AsyncMessageType
uses tdic.ab.integ.plugins.lawson.helper.TDIC_LawsonHelper

@gw.rules.RuleName("Update")
internal class Update {
  static function doCondition(messageContext : entity.MessageContext) : boolean {
    
/*start00rule*/
return messageContext.EventName == "ABContactChanged"
/*end00rule*/

  }

  static function doAction(messageContext : entity.MessageContext, actions : gw.rules.Action) {

/*start00rule*/
    var contact = messageContext.Root as ABContact
    var plugin = Plugins.get("BillingSystemPlugin") as ClientSystemPlugin
    if (plugin != null) {
      plugin.createAsyncMessage(messageContext, contact, AsyncMessageType.Update)
    }
    //GINTEG-21 : Set 'NotifyAddressChange' so that the ABContact information will be sent to Lawson
    //GINTEG-820 : Set the flag to true only when there is a change in the fields present in toNotifyAddrChng List
    if (TDIC_LawsonHelper.isContactNameTaxIDAddressChanged(messageContext.Root as ABContact)) {
      contact.NotifyAddressChange = true
    }
/*end00rule*/

  }
}
